^C:\USERS\ADMINISTRATOR\DOCUMENTS\VISUAL STUDIO 2010\PROJECTS\DMS\DMS\FRMLOGIN.RESX|C:\USERS\ADMINISTRATOR\DOCUMENTS\VISUAL STUDIO 2010\PROJECTS\DMS\DMS\MY PROJECT\RESOURCES.RESX
C:\USERS\ADMINISTRATOR\DOCUMENTS\VISUAL STUDIO 2010\PROJECTS\DMS\DMS\OBJ\X86\DEBUG\DMS.FRMLOGIN.RESOURCES
C:\USERS\ADMINISTRATOR\DOCUMENTS\VISUAL STUDIO 2010\PROJECTS\DMS\DMS\OBJ\X86\DEBUG\DMS.RESOURCES.RESOURCES
^C:\USERS\ADMINISTRATOR\DOCUMENTS\VISUAL STUDIO 2010\PROJECTS\DMS\DMS\FRMALERTLOGIN.RESX|C:\USERS\ADMINISTRATOR\DOCUMENTS\VISUAL STUDIO 2010\PROJECTS\DMS\DMS\FRMLOGIN.RESX|C:\USERS\ADMINISTRATOR\DOCUMENTS\VISUAL STUDIO 2010\PROJECTS\DMS\DMS\MY PROJECT\RESOURCES.RESX
C:\USERS\ADMINISTRATOR\DOCUMENTS\VISUAL STUDIO 2010\PROJECTS\DMS\DMS\OBJ\X86\DEBUG\DMS.FRMALERTLOGIN.RESOURCES
C:\USERS\ADMINISTRATOR\DOCUMENTS\VISUAL STUDIO 2010\PROJECTS\DMS\DMS\OBJ\X86\DEBUG\DMS.FRMLOGIN.RESOURCES
C:\USERS\ADMINISTRATOR\DOCUMENTS\VISUAL STUDIO 2010\PROJECTS\DMS\DMS\OBJ\X86\DEBUG\DMS.RESOURCES.RESOURCES
^C:\USERS\ADMINISTRATOR\DOCUMENTS\VISUAL STUDIO 2010\PROJECTS\DMS\DMS\FRMLOGIN.RESX|C:\USERS\ADMINISTRATOR\DOCUMENTS\VISUAL STUDIO 2010\PROJECTS\DMS\DMS\FRMMENU.RESX|C:\USERS\ADMINISTRATOR\DOCUMENTS\VISUAL STUDIO 2010\PROJECTS\DMS\DMS\MY PROJECT\RESOURCES.RESX
C:\USERS\ADMINISTRATOR\DOCUMENTS\VISUAL STUDIO 2010\PROJECTS\DMS\DMS\OBJ\X86\DEBUG\DMS.FRMLOGIN.RESOURCES
C:\USERS\ADMINISTRATOR\DOCUMENTS\VISUAL STUDIO 2010\PROJECTS\DMS\DMS\OBJ\X86\DEBUG\DMS.FRMMENU.RESOURCES
C:\USERS\ADMINISTRATOR\DOCUMENTS\VISUAL STUDIO 2010\PROJECTS\DMS\DMS\OBJ\X86\DEBUG\DMS.RESOURCES.RESOURCES
^C:\USERS\ADMINISTRATOR\DOCUMENTS\VISUAL STUDIO 2010\PROJECTS\DMS\DMS\FRM_EDIT_FLOOR.RESX|C:\USERS\ADMINISTRATOR\DOCUMENTS\VISUAL STUDIO 2010\PROJECTS\DMS\DMS\FRM_LOGIN.RESX|C:\USERS\ADMINISTRATOR\DOCUMENTS\VISUAL STUDIO 2010\PROJECTS\DMS\DMS\FRM_MENU.RESX|C:\USERS\ADMINISTRATOR\DOCUMENTS\VISUAL STUDIO 2010\PROJECTS\DMS\DMS\MY PROJECT\RESOURCES.RESX
C:\USERS\ADMINISTRATOR\DOCUMENTS\VISUAL STUDIO 2010\PROJECTS\DMS\DMS\OBJ\X86\DEBUG\DMS.FRM_EDIT_FLOOR.RESOURCES
C:\USERS\ADMINISTRATOR\DOCUMENTS\VISUAL STUDIO 2010\PROJECTS\DMS\DMS\OBJ\X86\DEBUG\DMS.FRM_LOGIN.RESOURCES
C:\USERS\ADMINISTRATOR\DOCUMENTS\VISUAL STUDIO 2010\PROJECTS\DMS\DMS\OBJ\X86\DEBUG\DMS.FRM_MENU.RESOURCES
C:\USERS\ADMINISTRATOR\DOCUMENTS\VISUAL STUDIO 2010\PROJECTS\DMS\DMS\OBJ\X86\DEBUG\DMS.RESOURCES.RESOURCES
^C:\USERS\ADMINISTRATOR\DOCUMENTS\VISUAL STUDIO 2010\PROJECTS\DMS\DMS\FRM_EDIT_FLOOR.RESX|C:\USERS\ADMINISTRATOR\DOCUMENTS\VISUAL STUDIO 2010\PROJECTS\DMS\DMS\FRM_EDIT_SECTION.RESX|C:\USERS\ADMINISTRATOR\DOCUMENTS\VISUAL STUDIO 2010\PROJECTS\DMS\DMS\FRM_LOGIN.RESX|C:\USERS\ADMINISTRATOR\DOCUMENTS\VISUAL STUDIO 2010\PROJECTS\DMS\DMS\FRM_MENU.RESX|C:\USERS\ADMINISTRATOR\DOCUMENTS\VISUAL STUDIO 2010\PROJECTS\DMS\DMS\MY PROJECT\RESOURCES.RESX
C:\USERS\ADMINISTRATOR\DOCUMENTS\VISUAL STUDIO 2010\PROJECTS\DMS\DMS\OBJ\X86\DEBUG\DMS.FRM_EDIT_FLOOR.RESOURCES
C:\USERS\ADMINISTRATOR\DOCUMENTS\VISUAL STUDIO 2010\PROJECTS\DMS\DMS\OBJ\X86\DEBUG\DMS.FRM_EDIT_SECTION.RESOURCES
C:\USERS\ADMINISTRATOR\DOCUMENTS\VISUAL STUDIO 2010\PROJECTS\DMS\DMS\OBJ\X86\DEBUG\DMS.FRM_LOGIN.RESOURCES
C:\USERS\ADMINISTRATOR\DOCUMENTS\VISUAL STUDIO 2010\PROJECTS\DMS\DMS\OBJ\X86\DEBUG\DMS.FRM_MENU.RESOURCES
C:\USERS\ADMINISTRATOR\DOCUMENTS\VISUAL STUDIO 2010\PROJECTS\DMS\DMS\OBJ\X86\DEBUG\DMS.RESOURCES.RESOURCES
^C:\USERS\ADMINISTRATOR\DOCUMENTS\VISUAL STUDIO 2010\PROJECTS\DMS\DMS\FRM_EDIT_FLOOR.RESX|C:\USERS\ADMINISTRATOR\DOCUMENTS\VISUAL STUDIO 2010\PROJECTS\DMS\DMS\FRM_EDIT_LOCATION.RESX|C:\USERS\ADMINISTRATOR\DOCUMENTS\VISUAL STUDIO 2010\PROJECTS\DMS\DMS\FRM_EDIT_SECTION.RESX|C:\USERS\ADMINISTRATOR\DOCUMENTS\VISUAL STUDIO 2010\PROJECTS\DMS\DMS\FRM_LOGIN.RESX|C:\USERS\ADMINISTRATOR\DOCUMENTS\VISUAL STUDIO 2010\PROJECTS\DMS\DMS\FRM_MENU.RESX|C:\USERS\ADMINISTRATOR\DOCUMENTS\VISUAL STUDIO 2010\PROJECTS\DMS\DMS\MY PROJECT\RESOURCES.RESX
C:\USERS\ADMINISTRATOR\DOCUMENTS\VISUAL STUDIO 2010\PROJECTS\DMS\DMS\OBJ\X86\DEBUG\DMS.FRM_EDIT_FLOOR.RESOURCES
C:\USERS\ADMINISTRATOR\DOCUMENTS\VISUAL STUDIO 2010\PROJECTS\DMS\DMS\OBJ\X86\DEBUG\DMS.FRM_EDIT_LOCATION.RESOURCES
C:\USERS\ADMINISTRATOR\DOCUMENTS\VISUAL STUDIO 2010\PROJECTS\DMS\DMS\OBJ\X86\DEBUG\DMS.FRM_EDIT_SECTION.RESOURCES
C:\USERS\ADMINISTRATOR\DOCUMENTS\VISUAL STUDIO 2010\PROJECTS\DMS\DMS\OBJ\X86\DEBUG\DMS.FRM_LOGIN.RESOURCES
C:\USERS\ADMINISTRATOR\DOCUMENTS\VISUAL STUDIO 2010\PROJECTS\DMS\DMS\OBJ\X86\DEBUG\DMS.FRM_MENU.RESOURCES
C:\USERS\ADMINISTRATOR\DOCUMENTS\VISUAL STUDIO 2010\PROJECTS\DMS\DMS\OBJ\X86\DEBUG\DMS.RESOURCES.RESOURCES
^C:\USERS\ADMINISTRATOR\DESKTOP\DMS\DMS\FRM_EDIT_FLOOR.RESX|C:\USERS\ADMINISTRATOR\DESKTOP\DMS\DMS\FRM_EDIT_LOCATION.RESX|C:\USERS\ADMINISTRATOR\DESKTOP\DMS\DMS\FRM_EDIT_SECTION.RESX|C:\USERS\ADMINISTRATOR\DESKTOP\DMS\DMS\FRM_LOGIN.RESX|C:\USERS\ADMINISTRATOR\DESKTOP\DMS\DMS\FRM_MENU.RESX|C:\USERS\ADMINISTRATOR\DESKTOP\DMS\DMS\MY PROJECT\RESOURCES.RESX
C:\USERS\ADMINISTRATOR\DESKTOP\DMS\DMS\OBJ\X86\DEBUG\DMS.RESOURCES.RESOURCES
C:\USERS\ADMINISTRATOR\DESKTOP\DMS\DMS\OBJ\X86\DEBUG\DMS.FRM_LOGIN.RESOURCES
C:\USERS\ADMINISTRATOR\DESKTOP\DMS\DMS\OBJ\X86\DEBUG\DMS.FRM_EDIT_FLOOR.RESOURCES
C:\USERS\ADMINISTRATOR\DESKTOP\DMS\DMS\OBJ\X86\DEBUG\DMS.FRM_EDIT_LOCATION.RESOURCES
C:\USERS\ADMINISTRATOR\DESKTOP\DMS\DMS\OBJ\X86\DEBUG\DMS.FRM_EDIT_SECTION.RESOURCES
C:\USERS\ADMINISTRATOR\DESKTOP\DMS\DMS\OBJ\X86\DEBUG\DMS.FRM_MENU.RESOURCES
^C:\USERS\ADMINISTRATOR\DESKTOP\DMS\DMS\FRM_EDIT_FLOOR.RESX|C:\USERS\ADMINISTRATOR\DESKTOP\DMS\DMS\FRM_EDIT_LOCATION.RESX|C:\USERS\ADMINISTRATOR\DESKTOP\DMS\DMS\FRM_EDIT_SECTION.RESX|C:\USERS\ADMINISTRATOR\DESKTOP\DMS\DMS\FRM_HELP_MAIN.RESX|C:\USERS\ADMINISTRATOR\DESKTOP\DMS\DMS\FRM_LOGIN.RESX|C:\USERS\ADMINISTRATOR\DESKTOP\DMS\DMS\FRM_MENU.RESX|C:\USERS\ADMINISTRATOR\DESKTOP\DMS\DMS\MY PROJECT\RESOURCES.RESX
C:\USERS\ADMINISTRATOR\DESKTOP\DMS\DMS\OBJ\X86\DEBUG\DMS.FRM_EDIT_FLOOR.RESOURCES
C:\USERS\ADMINISTRATOR\DESKTOP\DMS\DMS\OBJ\X86\DEBUG\DMS.FRM_EDIT_LOCATION.RESOURCES
C:\USERS\ADMINISTRATOR\DESKTOP\DMS\DMS\OBJ\X86\DEBUG\DMS.FRM_EDIT_SECTION.RESOURCES
C:\USERS\ADMINISTRATOR\DESKTOP\DMS\DMS\OBJ\X86\DEBUG\DMS.FRM_HELP_MAIN.RESOURCES
C:\USERS\ADMINISTRATOR\DESKTOP\DMS\DMS\OBJ\X86\DEBUG\DMS.FRM_MENU.RESOURCES
C:\USERS\ADMINISTRATOR\DESKTOP\DMS\DMS\OBJ\X86\DEBUG\DMS.RESOURCES.RESOURCES
C:\USERS\ADMINISTRATOR\DESKTOP\DMS\DMS\OBJ\X86\DEBUG\DMS.FORM1.RESOURCES
^C:\USERS\ADMINISTRATOR\DESKTOP\DMS\DMS\FRM_ADD.RESX|C:\USERS\ADMINISTRATOR\DESKTOP\DMS\DMS\FRM_EDIT_FLOOR.RESX|C:\USERS\ADMINISTRATOR\DESKTOP\DMS\DMS\FRM_EDIT_LOCATION.RESX|C:\USERS\ADMINISTRATOR\DESKTOP\DMS\DMS\FRM_EDIT_SECTION.RESX|C:\USERS\ADMINISTRATOR\DESKTOP\DMS\DMS\FRM_HELP_MAIN.RESX|C:\USERS\ADMINISTRATOR\DESKTOP\DMS\DMS\FRM_LOGIN.RESX|C:\USERS\ADMINISTRATOR\DESKTOP\DMS\DMS\FRM_MENU.RESX|C:\USERS\ADMINISTRATOR\DESKTOP\DMS\DMS\MY PROJECT\RESOURCES.RESX
C:\USERS\ADMINISTRATOR\DESKTOP\DMS\DMS\OBJ\X86\DEBUG\DMS.FRM_ADD.RESOURCES
C:\USERS\ADMINISTRATOR\DESKTOP\DMS\DMS\OBJ\X86\DEBUG\DMS.FRM_EDIT_FLOOR.RESOURCES
C:\USERS\ADMINISTRATOR\DESKTOP\DMS\DMS\OBJ\X86\DEBUG\DMS.FRM_EDIT_LOCATION.RESOURCES
C:\USERS\ADMINISTRATOR\DESKTOP\DMS\DMS\OBJ\X86\DEBUG\DMS.FRM_EDIT_SECTION.RESOURCES
C:\USERS\ADMINISTRATOR\DESKTOP\DMS\DMS\OBJ\X86\DEBUG\DMS.FRM_HELP_MAIN.RESOURCES
C:\USERS\ADMINISTRATOR\DESKTOP\DMS\DMS\OBJ\X86\DEBUG\DMS.FORM1.RESOURCES
C:\USERS\ADMINISTRATOR\DESKTOP\DMS\DMS\OBJ\X86\DEBUG\DMS.FRM_MENU.RESOURCES
C:\USERS\ADMINISTRATOR\DESKTOP\DMS\DMS\OBJ\X86\DEBUG\DMS.RESOURCES.RESOURCES
^C:\USERS\ADMINISTRATOR\DESKTOP\DMS\DMS\FRM_ADD.RESX|C:\USERS\ADMINISTRATOR\DESKTOP\DMS\DMS\FRM_EDIT_BRAND.RESX|C:\USERS\ADMINISTRATOR\DESKTOP\DMS\DMS\FRM_EDIT_FLOOR.RESX|C:\USERS\ADMINISTRATOR\DESKTOP\DMS\DMS\FRM_EDIT_LOCATION.RESX|C:\USERS\ADMINISTRATOR\DESKTOP\DMS\DMS\FRM_EDIT_SECTION.RESX|C:\USERS\ADMINISTRATOR\DESKTOP\DMS\DMS\FRM_HELP_MAIN.RESX|C:\USERS\ADMINISTRATOR\DESKTOP\DMS\DMS\FRM_LOGIN.RESX|C:\USERS\ADMINISTRATOR\DESKTOP\DMS\DMS\FRM_MENU.RESX|C:\USERS\ADMINISTRATOR\DESKTOP\DMS\DMS\MY PROJECT\RESOURCES.RESX
C:\USERS\ADMINISTRATOR\DESKTOP\DMS\DMS\OBJ\X86\DEBUG\DMS.FRM_ADD.RESOURCES
C:\USERS\ADMINISTRATOR\DESKTOP\DMS\DMS\OBJ\X86\DEBUG\DMS.FRM_EDIT_BRAND.RESOURCES
C:\USERS\ADMINISTRATOR\DESKTOP\DMS\DMS\OBJ\X86\DEBUG\DMS.FRM_EDIT_FLOOR.RESOURCES
C:\USERS\ADMINISTRATOR\DESKTOP\DMS\DMS\OBJ\X86\DEBUG\DMS.FRM_EDIT_LOCATION.RESOURCES
C:\USERS\ADMINISTRATOR\DESKTOP\DMS\DMS\OBJ\X86\DEBUG\DMS.FRM_EDIT_SECTION.RESOURCES
C:\USERS\ADMINISTRATOR\DESKTOP\DMS\DMS\OBJ\X86\DEBUG\DMS.FRM_HELP_MAIN.RESOURCES
C:\USERS\ADMINISTRATOR\DESKTOP\DMS\DMS\OBJ\X86\DEBUG\DMS.FORM1.RESOURCES
C:\USERS\ADMINISTRATOR\DESKTOP\DMS\DMS\OBJ\X86\DEBUG\DMS.FRM_MENU.RESOURCES
C:\USERS\ADMINISTRATOR\DESKTOP\DMS\DMS\OBJ\X86\DEBUG\DMS.RESOURCES.RESOURCES
^C:\USERS\ADMINISTRATOR\DESKTOP\DMS\DMS\FRM_ADD.RESX|C:\USERS\ADMINISTRATOR\DESKTOP\DMS\DMS\FRM_EDIT_BRAND.RESX|C:\USERS\ADMINISTRATOR\DESKTOP\DMS\DMS\FRM_EDIT_FLOOR.RESX|C:\USERS\ADMINISTRATOR\DESKTOP\DMS\DMS\FRM_EDIT_LOCATION.RESX|C:\USERS\ADMINISTRATOR\DESKTOP\DMS\DMS\FRM_EDIT_SECTION.RESX|C:\USERS\ADMINISTRATOR\DESKTOP\DMS\DMS\FRM_EDIT_TYPE.RESX|C:\USERS\ADMINISTRATOR\DESKTOP\DMS\DMS\FRM_HELP_MAIN.RESX|C:\USERS\ADMINISTRATOR\DESKTOP\DMS\DMS\FRM_LOGIN.RESX|C:\USERS\ADMINISTRATOR\DESKTOP\DMS\DMS\FRM_MENU.RESX|C:\USERS\ADMINISTRATOR\DESKTOP\DMS\DMS\MY PROJECT\RESOURCES.RESX
C:\USERS\ADMINISTRATOR\DESKTOP\DMS\DMS\OBJ\X86\DEBUG\DMS.FRM_ADD.RESOURCES
C:\USERS\ADMINISTRATOR\DESKTOP\DMS\DMS\OBJ\X86\DEBUG\DMS.FRM_EDIT_BRAND.RESOURCES
C:\USERS\ADMINISTRATOR\DESKTOP\DMS\DMS\OBJ\X86\DEBUG\DMS.FRM_EDIT_FLOOR.RESOURCES
C:\USERS\ADMINISTRATOR\DESKTOP\DMS\DMS\OBJ\X86\DEBUG\DMS.FRM_EDIT_LOCATION.RESOURCES
C:\USERS\ADMINISTRATOR\DESKTOP\DMS\DMS\OBJ\X86\DEBUG\DMS.FRM_EDIT_SECTION.RESOURCES
C:\USERS\ADMINISTRATOR\DESKTOP\DMS\DMS\OBJ\X86\DEBUG\DMS.FRM_EDIT_TYPE.RESOURCES
C:\USERS\ADMINISTRATOR\DESKTOP\DMS\DMS\OBJ\X86\DEBUG\DMS.FRM_HELP_MAIN.RESOURCES
C:\USERS\ADMINISTRATOR\DESKTOP\DMS\DMS\OBJ\X86\DEBUG\DMS.FORM1.RESOURCES
C:\USERS\ADMINISTRATOR\DESKTOP\DMS\DMS\OBJ\X86\DEBUG\DMS.FRM_MENU.RESOURCES
C:\USERS\ADMINISTRATOR\DESKTOP\DMS\DMS\OBJ\X86\DEBUG\DMS.RESOURCES.RESOURCES
^C:\USERS\ADMINISTRATOR\DESKTOP\DMS\DMS\FRM_ADD_DEVICE.RESX|C:\USERS\ADMINISTRATOR\DESKTOP\DMS\DMS\FRM_EDIT_BRAND.RESX|C:\USERS\ADMINISTRATOR\DESKTOP\DMS\DMS\FRM_EDIT_FLOOR.RESX|C:\USERS\ADMINISTRATOR\DESKTOP\DMS\DMS\FRM_EDIT_LOCATION.RESX|C:\USERS\ADMINISTRATOR\DESKTOP\DMS\DMS\FRM_EDIT_SECTION.RESX|C:\USERS\ADMINISTRATOR\DESKTOP\DMS\DMS\FRM_EDIT_TYPE.RESX|C:\USERS\ADMINISTRATOR\DESKTOP\DMS\DMS\FRM_HELP_MAIN.RESX|C:\USERS\ADMINISTRATOR\DESKTOP\DMS\DMS\FRM_LOGIN.RESX|C:\USERS\ADMINISTRATOR\DESKTOP\DMS\DMS\FRM_MENU.RESX|C:\USERS\ADMINISTRATOR\DESKTOP\DMS\DMS\MY PROJECT\RESOURCES.RESX
C:\USERS\ADMINISTRATOR\DESKTOP\DMS\DMS\OBJ\X86\DEBUG\DMS.FRM_ADD_DEVICE.RESOURCES
C:\USERS\ADMINISTRATOR\DESKTOP\DMS\DMS\OBJ\X86\DEBUG\DMS.FRM_EDIT_BRAND.RESOURCES
C:\USERS\ADMINISTRATOR\DESKTOP\DMS\DMS\OBJ\X86\DEBUG\DMS.FRM_EDIT_FLOOR.RESOURCES
C:\USERS\ADMINISTRATOR\DESKTOP\DMS\DMS\OBJ\X86\DEBUG\DMS.FRM_EDIT_LOCATION.RESOURCES
C:\USERS\ADMINISTRATOR\DESKTOP\DMS\DMS\OBJ\X86\DEBUG\DMS.FRM_EDIT_SECTION.RESOURCES
C:\USERS\ADMINISTRATOR\DESKTOP\DMS\DMS\OBJ\X86\DEBUG\DMS.FRM_EDIT_TYPE.RESOURCES
C:\USERS\ADMINISTRATOR\DESKTOP\DMS\DMS\OBJ\X86\DEBUG\DMS.FRM_HELP_MAIN.RESOURCES
C:\USERS\ADMINISTRATOR\DESKTOP\DMS\DMS\OBJ\X86\DEBUG\DMS.FORM1.RESOURCES
C:\USERS\ADMINISTRATOR\DESKTOP\DMS\DMS\OBJ\X86\DEBUG\DMS.FRM_MENU.RESOURCES
C:\USERS\ADMINISTRATOR\DESKTOP\DMS\DMS\OBJ\X86\DEBUG\DMS.RESOURCES.RESOURCES
^C:\USERS\ADMINISTRATOR\DOWNLOADS\DMS\DMS\FRM_ADD_DEVICE.RESX|C:\USERS\ADMINISTRATOR\DOWNLOADS\DMS\DMS\FRM_ADD_USER.RESX|C:\USERS\ADMINISTRATOR\DOWNLOADS\DMS\DMS\FRM_EDIT_BRAND.RESX|C:\USERS\ADMINISTRATOR\DOWNLOADS\DMS\DMS\FRM_EDIT_FLOOR.RESX|C:\USERS\ADMINISTRATOR\DOWNLOADS\DMS\DMS\FRM_EDIT_LOCATION.RESX|C:\USERS\ADMINISTRATOR\DOWNLOADS\DMS\DMS\FRM_EDIT_SECTION.RESX|C:\USERS\ADMINISTRATOR\DOWNLOADS\DMS\DMS\FRM_EDIT_TYPE.RESX|C:\USERS\ADMINISTRATOR\DOWNLOADS\DMS\DMS\FRM_HELP_MAIN.RESX|C:\USERS\ADMINISTRATOR\DOWNLOADS\DMS\DMS\FRM_INSTALLER.RESX|C:\USERS\ADMINISTRATOR\DOWNLOADS\DMS\DMS\FRM_LOGIN.RESX|C:\USERS\ADMINISTRATOR\DOWNLOADS\DMS\DMS\FRM_MAINTENANCE.RESX|C:\USERS\ADMINISTRATOR\DOWNLOADS\DMS\DMS\FRM_MENU.RESX|C:\USERS\ADMINISTRATOR\DOWNLOADS\DMS\DMS\FRM_MNG_DEVICE.RESX|C:\USERS\ADMINISTRATOR\DOWNLOADS\DMS\DMS\FRM_SHOW.RESX|C:\USERS\ADMINISTRATOR\DOWNLOADS\DMS\DMS\FRM_SHOW_REPORTS.RESX|C:\USERS\ADMINISTRATOR\DOWNLOADS\DMS\DMS\FRM_TRANSFER.RESX|C:\USERS\ADMINISTRATOR\DOWNLOADS\DMS\DMS\MY PROJECT\RESOURCES.RESX
C:\USERS\ADMINISTRATOR\DOWNLOADS\DMS\DMS\OBJ\X86\DEBUG\DMS.FRM_ADD_DEVICE.RESOURCES
C:\USERS\ADMINISTRATOR\DOWNLOADS\DMS\DMS\OBJ\X86\DEBUG\DMS.FRM_ADD_USER.RESOURCES
C:\USERS\ADMINISTRATOR\DOWNLOADS\DMS\DMS\OBJ\X86\DEBUG\DMS.FRM_EDIT_BRAND.RESOURCES
C:\USERS\ADMINISTRATOR\DOWNLOADS\DMS\DMS\OBJ\X86\DEBUG\DMS.FRM_EDIT_FLOOR.RESOURCES
C:\USERS\ADMINISTRATOR\DOWNLOADS\DMS\DMS\OBJ\X86\DEBUG\DMS.FRM_EDIT_LOCATION.RESOURCES
C:\USERS\ADMINISTRATOR\DOWNLOADS\DMS\DMS\OBJ\X86\DEBUG\DMS.FRM_EDIT_SECTION.RESOURCES
C:\USERS\ADMINISTRATOR\DOWNLOADS\DMS\DMS\OBJ\X86\DEBUG\DMS.FRM_EDIT_TYPE.RESOURCES
C:\USERS\ADMINISTRATOR\DOWNLOADS\DMS\DMS\OBJ\X86\DEBUG\DMS.FRM_HELP_MAIN.RESOURCES
C:\USERS\ADMINISTRATOR\DOWNLOADS\DMS\DMS\OBJ\X86\DEBUG\DMS.FRM_INSTALLER.RESOURCES
C:\USERS\ADMINISTRATOR\DOWNLOADS\DMS\DMS\OBJ\X86\DEBUG\DMS.FORM1.RESOURCES
C:\USERS\ADMINISTRATOR\DOWNLOADS\DMS\DMS\OBJ\X86\DEBUG\DMS.FRM_MAINTENANCE.RESOURCES
C:\USERS\ADMINISTRATOR\DOWNLOADS\DMS\DMS\OBJ\X86\DEBUG\DMS.BTN_ADD_USER.RESOURCES
C:\USERS\ADMINISTRATOR\DOWNLOADS\DMS\DMS\OBJ\X86\DEBUG\DMS.FRM_MNG_DEVICE.RESOURCES
C:\USERS\ADMINISTRATOR\DOWNLOADS\DMS\DMS\OBJ\X86\DEBUG\DMS.FRM_SHOW.RESOURCES
C:\USERS\ADMINISTRATOR\DOWNLOADS\DMS\DMS\OBJ\X86\DEBUG\DMS.FRM_SHOW_REPORTS.RESOURCES
C:\USERS\ADMINISTRATOR\DOWNLOADS\DMS\DMS\OBJ\X86\DEBUG\DMS.FRM_TRANSFER.RESOURCES
C:\USERS\ADMINISTRATOR\DOWNLOADS\DMS\DMS\OBJ\X86\DEBUG\DMS.RESOURCES.RESOURCES
^C:\USERS\ADMINISTRATOR\DOWNLOADS\DMS\DMS\FRMREPORT.RESX|C:\USERS\ADMINISTRATOR\DOWNLOADS\DMS\DMS\FRM_ADD_DEVICE.RESX|C:\USERS\ADMINISTRATOR\DOWNLOADS\DMS\DMS\FRM_ADD_USER.RESX|C:\USERS\ADMINISTRATOR\DOWNLOADS\DMS\DMS\FRM_EDIT_BRAND.RESX|C:\USERS\ADMINISTRATOR\DOWNLOADS\DMS\DMS\FRM_EDIT_FLOOR.RESX|C:\USERS\ADMINISTRATOR\DOWNLOADS\DMS\DMS\FRM_EDIT_LOCATION.RESX|C:\USERS\ADMINISTRATOR\DOWNLOADS\DMS\DMS\FRM_EDIT_SECTION.RESX|C:\USERS\ADMINISTRATOR\DOWNLOADS\DMS\DMS\FRM_EDIT_TYPE.RESX|C:\USERS\ADMINISTRATOR\DOWNLOADS\DMS\DMS\FRM_HELP_MAIN.RESX|C:\USERS\ADMINISTRATOR\DOWNLOADS\DMS\DMS\FRM_INSTALLER.RESX|C:\USERS\ADMINISTRATOR\DOWNLOADS\DMS\DMS\FRM_LOGIN.RESX|C:\USERS\ADMINISTRATOR\DOWNLOADS\DMS\DMS\FRM_MAINTENANCE.RESX|C:\USERS\ADMINISTRATOR\DOWNLOADS\DMS\DMS\FRM_MENU.RESX|C:\USERS\ADMINISTRATOR\DOWNLOADS\DMS\DMS\FRM_MNG_DEVICE.RESX|C:\USERS\ADMINISTRATOR\DOWNLOADS\DMS\DMS\FRM_SHOW.RESX|C:\USERS\ADMINISTRATOR\DOWNLOADS\DMS\DMS\FRM_SHOW_REPORTS.RESX|C:\USERS\ADMINISTRATOR\DOWNLOADS\DMS\DMS\FRM_TRANSFER.RESX|C:\USERS\ADMINISTRATOR\DOWNLOADS\DMS\DMS\MY PROJECT\RESOURCES.RESX
C:\USERS\ADMINISTRATOR\DOWNLOADS\DMS\DMS\OBJ\X86\DEBUG\DMS.FRMREPORT.RESOURCES
C:\USERS\ADMINISTRATOR\DOWNLOADS\DMS\DMS\OBJ\X86\DEBUG\DMS.FRM_ADD_DEVICE.RESOURCES
C:\USERS\ADMINISTRATOR\DOWNLOADS\DMS\DMS\OBJ\X86\DEBUG\DMS.FRM_ADD_USER.RESOURCES
C:\USERS\ADMINISTRATOR\DOWNLOADS\DMS\DMS\OBJ\X86\DEBUG\DMS.FRM_EDIT_BRAND.RESOURCES
C:\USERS\ADMINISTRATOR\DOWNLOADS\DMS\DMS\OBJ\X86\DEBUG\DMS.FRM_EDIT_FLOOR.RESOURCES
C:\USERS\ADMINISTRATOR\DOWNLOADS\DMS\DMS\OBJ\X86\DEBUG\DMS.FRM_EDIT_LOCATION.RESOURCES
C:\USERS\ADMINISTRATOR\DOWNLOADS\DMS\DMS\OBJ\X86\DEBUG\DMS.FRM_EDIT_SECTION.RESOURCES
C:\USERS\ADMINISTRATOR\DOWNLOADS\DMS\DMS\OBJ\X86\DEBUG\DMS.FRM_EDIT_TYPE.RESOURCES
C:\USERS\ADMINISTRATOR\DOWNLOADS\DMS\DMS\OBJ\X86\DEBUG\DMS.FRM_HELP_MAIN.RESOURCES
C:\USERS\ADMINISTRATOR\DOWNLOADS\DMS\DMS\OBJ\X86\DEBUG\DMS.FRM_INSTALLER.RESOURCES
C:\USERS\ADMINISTRATOR\DOWNLOADS\DMS\DMS\OBJ\X86\DEBUG\DMS.FORM1.RESOURCES
C:\USERS\ADMINISTRATOR\DOWNLOADS\DMS\DMS\OBJ\X86\DEBUG\DMS.FRM_MAINTENANCE.RESOURCES
C:\USERS\ADMINISTRATOR\DOWNLOADS\DMS\DMS\OBJ\X86\DEBUG\DMS.BTN_ADD_USER.RESOURCES
C:\USERS\ADMINISTRATOR\DOWNLOADS\DMS\DMS\OBJ\X86\DEBUG\DMS.FRM_MNG_DEVICE.RESOURCES
C:\USERS\ADMINISTRATOR\DOWNLOADS\DMS\DMS\OBJ\X86\DEBUG\DMS.FRM_SHOW.RESOURCES
C:\USERS\ADMINISTRATOR\DOWNLOADS\DMS\DMS\OBJ\X86\DEBUG\DMS.FRM_SHOW_REPORTS.RESOURCES
C:\USERS\ADMINISTRATOR\DOWNLOADS\DMS\DMS\OBJ\X86\DEBUG\DMS.FRM_TRANSFER.RESOURCES
C:\USERS\ADMINISTRATOR\DOWNLOADS\DMS\DMS\OBJ\X86\DEBUG\DMS.RESOURCES.RESOURCES
